D:\Programming\my-microservices - up until Kubernetes\fraud\src\main\java\com\myproject\fraud\FraudCheckHistoryRepository.java
D:\Programming\my-microservices - up until Kubernetes\fraud\src\main\java\com\myproject\fraud\FraudCheckService.java
D:\Programming\my-microservices - up until Kubernetes\fraud\src\main\java\com\myproject\fraud\FraudController.java
D:\Programming\my-microservices - up until Kubernetes\fraud\src\main\java\com\myproject\fraud\FraudCheckHistory.java
D:\Programming\my-microservices - up until Kubernetes\fraud\src\main\java\com\myproject\fraud\FraudApplication.java
